%YAML 1.1
%TAG !u! tag:unity3d.com,2011:
--- !u!1045 &1
EditorBuildSettings:
  m_ObjectHideFlags: 0
  serializedVersion: 2
  m_Scenes:
  - enabled: 1
    path: Assets/Scenes/Menu.unity
    guid: 2cda990e2423bbf4892e6590ba056729
  - enabled: 1
    path: Assets/Scenes/Rules.unity
    guid: 729e7e15dbe9ace47a1cefc94d04edda
  - enabled: 1
    path: Assets/Scenes/Game.unity
    guid: fc95058400ff25d4887831cd9e20d290
  - enabled: 1
    path: Assets/Scenes/FonctionProto.unity
    guid: 788ac93a087b224449ad61450508a3d8
  - enabled: 1
    path: Assets/Scenes/Victory.unity
    guid: c1bcb69422d2eea48a49ad66f9b6dc25
  - enabled: 1
    path: Assets/Scenes/GameOver.unity
    guid: 47e013c52e535fe4a8f8fdf60a79a259
  - enabled: 1
    path: Assets/Scenes/Themes.unity
    guid: 812a8dcc55704f049bf4887712768566
  m_configObjects: {}
